<?xml version="1.0" encoding="UTF-8" standalone="no"?>
<!DOCTYPE svg PUBLIC "-//W3C//DTD SVG 1.1//EN" "http://www.w3.org/Graphics/SVG/1.1/DTD/svg11.dtd">
<svg width="100%" height="100%" viewBox="0 0 1000 1000" version="1.1" xmlns="http://www.w3.org/2000/svg" xmlns:xlink="http://www.w3.org/1999/xlink" xml:space="preserve" xmlns:serif="http://www.serif.com/" style="fill-rule:evenodd;clip-rule:evenodd;stroke-linecap:round;stroke-linejoin:round;stroke-miterlimit:1.5;">
    <g transform="matrix(1.14755,0,0,1.14755,5.6569,-29.2976)">
        <path d="M376.893,169.778L733.453,65.573L736.575,616.278L649.052,636.998L649.349,160.907L245.027,271.26L245.685,748.034L172.825,762.707L173.527,226.874L376.893,169.778Z" style="fill:rgb(27,232,89);stroke:rgb(29,232,89);stroke-width:0.87px;"/>
    </g>
    <g transform="matrix(-0.0035299,-1.14755,1.14755,-0.0035299,-609.845,1075.09)">
        <path d="M322.019,783.266C332.962,763.458 338.723,740.989 338.723,718.117C338.723,646.203 282.857,587.819 214.046,587.819C145.236,587.819 89.37,646.203 89.37,718.117C89.37,740.989 95.131,763.458 106.073,783.266L322.019,783.266Z" style="fill:rgb(27,232,89);"/>
    </g>
    <g transform="matrix(-0.00618581,-1.14754,1.14754,-0.00618581,-46.1628,934.726)">
        <clipPath id="_clip1">
            <rect x="86.141" y="588.739" width="249.353" height="260.597"/>
        </clipPath>
        <g clip-path="url(#_clip1)">
            <path d="M322.019,783.266C332.962,763.458 338.723,740.989 338.723,718.117C338.723,646.203 282.857,587.819 214.046,587.819C145.236,587.819 89.37,646.203 89.37,718.117C89.37,740.989 95.131,763.458 106.073,783.266L322.019,783.266Z" style="fill:rgb(27,232,89);"/>
        </g>
    </g>
</svg>
